﻿{
	"data": [{
		"destination": "C:\\Users\\jburton\\Desktop\\ProductionRegExTools",
		"name": "RegExTools",
		"source": "C:\\Users\\jburton\\Desktop\\DevRegExTools"
	},
	{
		"destination": "C:\\Users\\jburton\\Desktop\\heroku_app3prod",
		"name": "heroku_app",
		"source": "C:\\Users\\jburton\\Desktop\\heroku_app3dev"
	}]
}
